!tape
name: instrumental_test_load_popular_movie_test
interactions:
- recorded: 2019-12-01T13:09:42.619Z
  request:
    method: GET
    uri: https://api.themoviedb.org/3/movie/popular?api_key=848001472ba79b519655a14b11681993
  response:
    status: 200
    headers:
      access-control-allow-methods: GET, HEAD, POST, PUT, DELETE, OPTIONS
      access-control-allow-origin: '*'
      access-control-expose-headers: ETag, X-RateLimit-Limit, X-RateLimit-Remaining, X-RateLimit-Reset, Retry-After, Content-Length, Content-Range
      cache-control: public, max-age=21600
      content-type: application/json;charset=utf-8
      date: Sun, 01 Dec 2019 13:09:43 GMT
      server: openresty
      vary: Accept-Encoding
      x-ratelimit-limit: '40'
      x-ratelimit-remaining: '39'
      x-ratelimit-reset: '1575205793'
    body: '{"page":1,"total_results":10000,"total_pages":500,"results":[{"popularity":409.554,"vote_count":485,"video":false,"poster_path":"\/qdfARIhgpgZOBh3vfNhWS4hmSo3.jpg","id":330457,"adult":false,"backdrop_path":"\/xJWPZIYOEFIjZpBL7SVBGnzRYXp.jpg","original_language":"en","original_title":"Frozen
      II","genre_ids":[12,16,35,10402,10751],"title":"Frozen II","vote_average":7.1,"overview":"Elsa, Anna, Kristoff and Olaf head far into the forest to learn the truth about an ancient mystery of their kingdom.","release_date":"2019-11-20"},{"popularity":271.765,"vote_count":2881,"video":false,"poster_path":"\/8j58iEBw9pOXFD2L0nt0ZXeHviB.jpg","id":466272,"adult":false,"backdrop_path":"\/nGJpQCAn2NKeDoEflLI5DIvsqoQ.jpg","original_language":"en","original_title":"Once
      Upon a Time... in Hollywood","genre_ids":[35,18,53],"title":"Once Upon a Time... in Hollywood","vote_average":7.5,"overview":"A faded television actor and his stunt double strive to achieve fame and success in the film industry during the final years of
      Hollywood''s Golden Age in 1969 Los Angeles.","release_date":"2019-07-25"},{"popularity":181.793,"vote_count":6064,"video":false,"poster_path":"\/udDclJoHjfjb8Ekgsd4FDteOkCU.jpg","id":475557,"adult":false,"backdrop_path":"\/n6bUvigpRFqSwmPp1m2YADdbRBc.jpg","original_language":"en","original_title":"Joker","genre_ids":[80,18,53],"title":"Joker","vote_average":8.4,"overview":"During
      the 1980s, a failed stand-up comedian is driven insane and turns to a life of crime and chaos in Gotham City while becoming an infamous psychopathic crime figure.","release_date":"2019-10-02"},{"popularity":222.975,"vote_count":584,"video":false,"poster_path":"\/mbm8k3GFhXS0ROd9AD1gqYbIFbM.jpg","id":398978,"adult":false,"backdrop_path":"\/w6Lri1vyCSXxD2VMa5JGGQ0iNw.jpg","original_language":"en","original_title":"The
      Irishman","genre_ids":[80,18,36],"title":"The Irishman","vote_average":8.2,"overview":"Pennsylvania, 1956. Frank Sheeran, a war veteran of Irish origin who works as a truck driver, accidentally meets mobster Russell Bufalino. Once Frank becomes his trusted
      man, Bufalino sends him to Chicago with the task of helping Jimmy Hoffa, a powerful union leader related to organized crime, with whom Frank will maintain a close friendship for nearly twenty years.","release_date":"2019-11-01"},{"popularity":165.722,"vote_count":521,"video":false,"poster_path":"\/zBhv8rsLOfpFW2M5b6wW78Uoojs.jpg","id":540901,"adult":false,"backdrop_path":"\/mBBJ3N3an8FLkp0ZpGgIJwHKhBP.jpg","original_language":"en","original_title":"Hustlers","genre_ids":[35,80,18],"title":"Hustlers","vote_average":6.2,"overview":"A
      crew of savvy former strip club employees band together to turn the tables on their Wall Street clients.","release_date":"2019-09-12"},{"popularity":158.398,"vote_count":724,"video":false,"poster_path":"\/vqzNJRH4YyquRiWxCCOH0aXggHI.jpg","id":290859,"adult":false,"backdrop_path":"\/riTANvQ8GKmQbgtC1ps3OfkU43A.jpg","original_language":"en","original_title":"Terminator:
      Dark Fate","genre_ids":[28,878],"title":"Terminator: Dark Fate","vote_average":6.3,"overview":"Decades after Sarah Connor prevented Judgment Day, a lethal new Terminator is sent to eliminate the future leader of the resistance. In a fight to save mankind,
      battle-hardened Sarah Connor teams up with an unexpected ally and an enhanced super soldier to stop the deadliest Terminator yet.","release_date":"2019-10-23"},{"popularity":142.039,"vote_count":2213,"video":false,"poster_path":"\/zfE0R94v1E8cuKAerbskfD3VfUt.jpg","id":474350,"adult":false,"backdrop_path":"\/8moTOzunF7p40oR5XhlDvJckOSW.jpg","original_language":"en","original_title":"It
      Chapter Two","genre_ids":[18,27],"title":"It Chapter Two","vote_average":6.8,"overview":"27 years after overcoming the malevolent supernatural entity Pennywise, the former members of the Losers'' Club, who have grown up and moved away from Derry, are brought
      back together by a devastating phone call.","release_date":"2019-09-04"},{"popularity":179.421,"vote_count":13,"video":false,"poster_path":"\/4I0CQfnMy6sRR7QhgqsXR16TmIs.jpg","id":645541,"adult":false,"backdrop_path":"\/sxPycUAaLJJGq2lhhgzR96ePaO0.jpg","original_language":"en","original_title":"Ellipse","genre_ids":[878],"title":"Ellipse","vote_average":3.4,"overview":"A
      man and his dog are stranded on a volatile, oval-shaped planet and are forced to adapt and escape before time destroys them both.","release_date":"2019-11-05"},{"popularity":125.115,"vote_count":5198,"video":false,"poster_path":"\/lcq8dVxeeOqHvvgcte707K0KVx5.jpg","id":429617,"adult":false,"backdrop_path":"\/5myQbDzw3l8K9yofUXRJ4UTVgam.jpg","original_language":"en","original_title":"Spider-Man:
      Far from Home","genre_ids":[28,12,878],"title":"Spider-Man: Far from Home","vote_average":7.6,"overview":"Peter Parker and his friends go on a summer trip to Europe. However, they will hardly be able to rest - Peter will have to agree to help Nick Fury
      uncover the mystery of creatures that cause natural disasters and destruction throughout the continent.","release_date":"2019-06-28"},{"popularity":119.977,"vote_count":712,"video":false,"poster_path":"\/fapXd3v9qTcNBTm39ZC4KUVQDNf.jpg","id":423204,"adult":false,"backdrop_path":"\/k2WyDw2NTUIWnuEs5gT7wgrCQg6.jpg","original_language":"en","original_title":"Angel
      Has Fallen","genre_ids":[28],"title":"Angel Has Fallen","vote_average":5.9,"overview":"After the events in the previous film, Secret Service agent Mike Banning finds himself framed for an assassination attempt on the President. Pursued by his own agency
      and the FBI, Banning races to clear his name and uncover the real terrorist threat which has set its sights on Air Force One.","release_date":"2019-08-21"},{"popularity":123.753,"vote_count":128,"video":false,"poster_path":"\/pThyQovXQrw2m0s9x82twj48Jq4.jpg","id":546554,"adult":false,"backdrop_path":"\/AbRYlvwAKHs0YuyNO6NX9ofq4l6.jpg","original_language":"en","original_title":"Knives
      Out","genre_ids":[35,9648,53],"title":"Knives Out","vote_average":8,"overview":"When renowned crime novelist Harlan Thrombey is found dead at his estate just after his 85th birthday, the inquisitive and debonair Detective Benoit Blanc is mysteriously enlisted
      to investigate. From Harlan''s dysfunctional family to his devoted staff, Blanc sifts through a web of red herrings and self-serving lies to uncover the truth behind Harlan''s untimely death.","release_date":"2019-11-27"},{"popularity":103.537,"vote_count":3735,"video":false,"poster_path":"\/2bXbqYdUdNVa8VIWXVfclP2ICtT.jpg","id":420818,"adult":false,"backdrop_path":"\/nRXO2SnOA75OsWhNhXstHB8ZmI3.jpg","original_language":"en","original_title":"The
      Lion King","genre_ids":[12,18],"title":"The Lion King","vote_average":7.1,"overview":"Simba idolizes his father, King Mufasa, and takes to heart his own royal destiny. But not everyone in the kingdom celebrates the new cub''s arrival. Scar, Mufasa''s brother—and
      former heir to the throne—has plans of his own. The battle for Pride Rock is ravaged with betrayal, tragedy and drama, ultimately resulting in Simba''s exile. With help from a curious pair of newfound friends, Simba will have to figure out how to grow
      up and take back what is rightfully his.","release_date":"2019-07-12"},{"popularity":98.61,"vote_count":592,"video":false,"poster_path":"\/kTQ3J8oTTKofAVLYnds2cHUz9KO.jpg","id":522938,"adult":false,"backdrop_path":"\/spYx9XQFODuqEVoPpvaJI1ksAVt.jpg","original_language":"en","original_title":"Rambo:
      Last Blood","genre_ids":[28,53],"title":"Rambo: Last Blood","vote_average":5.9,"overview":"When John Rambo''s niece travels to Mexico to find the father that abandoned her and her mother, she finds herself in the grasps of Calle Mexican sex traffickers.
      When she doesn''t return home as expected, John learns she''s crossed into Mexico and sets out to get her back and make them pay.","release_date":"2019-09-19"},{"popularity":98.337,"vote_count":429,"video":false,"poster_path":"\/vOl6shtL0wknjaIs6JdKCpcHvg8.jpg","id":567609,"adult":false,"backdrop_path":"\/j8uPZSPjKYzHlN2B4NhPQVWWZ5x.jpg","original_language":"en","original_title":"Ready
      or Not","genre_ids":[35,27,9648,53],"title":"Ready or Not","vote_average":6.8,"overview":"A bride''s wedding night takes a sinister turn when her eccentric new in-laws force her to take part in a terrifying game.","release_date":"2019-08-21"},{"popularity":97.309,"vote_count":51,"video":false,"poster_path":"\/MBiKqTsouYqAACLYNDadsjhhC0.jpg","id":486589,"adult":false,"backdrop_path":"\/bga3i5jcejBekr2FCGJga1fYCh.jpg","original_language":"en","original_title":"Red
      Shoes 2019","genre_ids":[16,10749],"title":"Red Shoes 2019","vote_average":5.9,"overview":"Princes who have been turned into Dwarfs seek the red shoes of a lady in order to break the spell, although it will not be easy.","release_date":"2019-07-25"},{"popularity":41.423,"vote_count":13590,"video":false,"poster_path":"\/y4MBh0EjBlMuOzv9axM4qJlmhzz.jpg","id":283995,"adult":false,"backdrop_path":"\/aJn9XeesqsrSLKcHfHP4u5985hn.jpg","original_language":"en","original_title":"Guardians
      of the Galaxy Vol. 2","genre_ids":[28,12,35,878],"title":"Guardians of the Galaxy Vol. 2","vote_average":7.7,"overview":"The Guardians must fight to keep their newfound family together as they unravel the mysteries of Peter Quill''s true parentage.","release_date":"2017-04-19"},{"popularity":93.935,"vote_count":95,"video":false,"poster_path":"\/4E2lyUGLEr3yH4q6kJxPkQUhX7n.jpg","id":568012,"adult":false,"backdrop_path":"\/iGnCzXEx0cFlUbpyAMeHwHWhPhx.jpg","original_language":"ja","original_title":"ワンピーススタンピード","genre_ids":[28,12,16],"title":"One
      Piece: Stampede","vote_average":7.3,"overview":"One Piece: Stampede is a stand-alone film that celebrates the anime''s 20th Anniversary and takes place outside the canon of the \"One Piece\" TV series. Monkey D. Luffy and his Straw Hat pirate crew are
      invited to a massive Pirate Festival that brings many of the most iconic characters from throughout the franchise to participate in competition with the Straw Hats to find Roger''s treasure. It also pits the Straw Hats against a new enemy named Bullet,
      a former member of Roger''s crew.","release_date":"2019-08-09"},{"popularity":89.265,"vote_count":444,"video":false,"poster_path":"\/6ApDtO7xaWAfPqfi2IARXIzj8QS.jpg","id":359724,"adult":false,"backdrop_path":"\/mn9k8zapebAbCqsiKf24juhXjjx.jpg","original_language":"en","original_title":"Ford
      v Ferrari","genre_ids":[28,18,36],"title":"Ford v Ferrari","vote_average":8,"overview":"American car designer Carroll Shelby and the British-born driver Ken Miles work together to battle corporate interference, the laws of physics, and their own personal
      demons to build a revolutionary race car for Ford Motor Company and take on the dominating race cars of Enzo Ferrari at the 24 Hours of Le Mans in France in 1966.","release_date":"2019-11-13"},{"popularity":67.122,"vote_count":10603,"video":false,"poster_path":"\/eFnGmj63QPUpK7QUWSOUhypIQOT.jpg","id":109445,"adult":false,"backdrop_path":"\/cN9Nbwh66TRcj2gBE8cSEZulsx3.jpg","original_language":"en","original_title":"Frozen","genre_ids":[12,16,10751],"title":"Frozen","vote_average":7.3,"overview":"Young
      princess Anna of Arendelle dreams about finding true love at her sister Elsa’s coronation. Fate takes her on a dangerous journey in an attempt to end the eternal winter that has fallen over the kingdom. She''s accompanied by ice delivery man Kristoff,
      his reindeer Sven, and snowman Olaf. On an adventure where she will find out what friendship, courage, family, and true love really means.","release_date":"2013-11-27"},{"popularity":96.241,"vote_count":4223,"video":false,"poster_path":"\/3iYQTLGoy7QnjcUYRJy4YrAgGvp.jpg","id":420817,"adult":false,"backdrop_path":"\/rVqY0Bo4Npf6EIONUROxjYAJfmD.jpg","original_language":"en","original_title":"Aladdin","genre_ids":[12,35,14,10749,10751],"title":"Aladdin","vote_average":7,"overview":"A
      kindhearted street urchin named Aladdin embarks on a magical adventure after finding a lamp that releases a wisecracking genie while a power-hungry Grand Vizier vies for the same lamp that has the power to make their deepest wishes come true.","release_date":"2019-05-22"}]}'
- recorded: 2019-12-01T13:09:42.979Z
  request:
    method: GET
    uri: https://api.themoviedb.org/3/genre/movie/list?api_key=848001472ba79b519655a14b11681993
  response:
    status: 200
    headers:
      access-control-allow-methods: GET, HEAD, POST, PUT, DELETE, OPTIONS
      access-control-allow-origin: '*'
      access-control-expose-headers: ETag, X-RateLimit-Limit, X-RateLimit-Remaining, X-RateLimit-Reset, Retry-After, Content-Length, Content-Range
      cache-control: public, max-age=28800
      content-length: '547'
      content-type: application/json;charset=utf-8
      date: Sun, 01 Dec 2019 13:09:44 GMT
      etag: '"df2617d2ab5d0c85ceff5098b8ab70c4"'
      server: openresty
      x-ratelimit-limit: '40'
      x-ratelimit-remaining: '38'
      x-ratelimit-reset: '1575205793'
    body: '{"genres":[{"id":28,"name":"Action"},{"id":12,"name":"Adventure"},{"id":16,"name":"Animation"},{"id":35,"name":"Comedy"},{"id":80,"name":"Crime"},{"id":99,"name":"Documentary"},{"id":18,"name":"Drama"},{"id":10751,"name":"Family"},{"id":14,"name":"Fantasy"},{"id":36,"name":"History"},{"id":27,"name":"Horror"},{"id":10402,"name":"Music"},{"id":9648,"name":"Mystery"},{"id":10749,"name":"Romance"},{"id":878,"name":"Science
      Fiction"},{"id":10770,"name":"TV Movie"},{"id":53,"name":"Thriller"},{"id":10752,"name":"War"},{"id":37,"name":"Western"}]}'
