!tape
name: instrumental_test_load_popular_tv_test
interactions:
- recorded: 2019-12-01T13:10:32.374Z
  request:
    method: GET
    uri: https://api.themoviedb.org/3/tv/popular?api_key=848001472ba79b519655a14b11681993
  response:
    status: 200
    headers:
      access-control-allow-methods: GET, HEAD, POST, PUT, DELETE, OPTIONS
      access-control-allow-origin: '*'
      access-control-expose-headers: ETag, X-RateLimit-Limit, X-RateLimit-Remaining, X-RateLimit-Reset, Retry-After, Content-Length, Content-Range
      cache-control: public, max-age=21600
      content-type: application/json;charset=utf-8
      date: Sun, 01 Dec 2019 13:10:33 GMT
      server: openresty
      vary: Accept-Encoding
      x-ratelimit-limit: '40'
      x-ratelimit-remaining: '39'
      x-ratelimit-reset: '1575205843'
    body: '{"page":1,"total_results":10000,"total_pages":500,"results":[{"original_name":"The Mandalorian","genre_ids":[10759,10765],"name":"The Mandalorian","popularity":610.361,"origin_country":["US"],"vote_count":157,"first_air_date":"2019-11-12","backdrop_path":"\/o7qi2v4uWQ8bZ1tW3KI0Ztn2epk.jpg","original_language":"en","id":82856,"vote_average":7.7,"overview":"Set
      after the fall of the Empire and before the emergence of the First Order, we follow the travails of a lone gunfighter in the outer reaches of the galaxy far from the authority of the New Republic.","poster_path":"\/BbNvKCuEF4SRzFXR16aK6ISFtR.jpg"},{"original_name":"Rick
      and Morty","genre_ids":[16,35,10759,10765],"name":"Rick and Morty","popularity":305.679,"origin_country":["US"],"vote_count":1526,"first_air_date":"2013-12-02","backdrop_path":"\/mzzHr6g1yvZ05Mc7hNj3tUdy2bM.jpg","original_language":"en","id":60625,"vote_average":8.6,"overview":"Rick
      is a mentally-unbalanced but scientifically-gifted old man who has recently reconnected with his family. He spends most of his time involving his young grandson Morty in dangerous, outlandish adventures throughout space and alternate universes. Compounded
      with Morty''s already unstable family life, these events cause Morty much distress at home and school.","poster_path":"\/qJdfO3ahgAMf2rcmhoqngjBBZW1.jpg"},{"original_name":"Arrow","genre_ids":[80,18,9648,10759],"name":"Arrow","popularity":209.867,"origin_country":["US"],"vote_count":2864,"first_air_date":"2012-10-10","backdrop_path":"\/dXTyVDTIgeByvUOUEiHjbi8xX9A.jpg","original_language":"en","id":1412,"vote_average":5.8,"overview":"Spoiled
      billionaire playboy Oliver Queen is missing and presumed dead when his yacht is lost at sea. He returns five years later a changed man, determined to clean up the city as a hooded vigilante armed with a bow.","poster_path":"\/gKG5QGz5Ngf8fgWpBsWtlg5L2SF.jpg"},{"original_name":"The
      Simpsons","genre_ids":[16,35],"name":"The Simpsons","popularity":173.417,"origin_country":["US"],"vote_count":2256,"first_air_date":"1989-12-17","backdrop_path":"\/f5uNbUC76oowt5mt5J9QlqrIYQ6.jpg","original_language":"en","id":456,"vote_average":7.2,"overview":"Set
      in Springfield, the average American town, the show focuses on the antics and everyday adventures of the Simpson family; Homer, Marge, Bart, Lisa and Maggie, as well as a virtual cast of thousands. Since the beginning, the series has been a pop culture
      icon, attracting hundreds of celebrities to guest star. The show has also made name for itself in its fearless satirical take on politics, media and American life in general.","poster_path":"\/yTZQkSsxUFJZJe67IenRM0AEklc.jpg"},{"original_name":"The Flash","genre_ids":[18,10765],"name":"The
      Flash","popularity":159.857,"origin_country":["US"],"vote_count":3017,"first_air_date":"2014-10-07","backdrop_path":"\/6ZdQTBy20HzWudZthAV7NkZWfIb.jpg","original_language":"en","id":60735,"vote_average":6.7,"overview":"After a particle accelerator causes
      a freak storm, CSI Investigator Barry Allen is struck by lightning and falls into a coma. Months later he awakens with the power of super speed, granting him the ability to move through Central City like an unseen guardian angel. Though initially excited
      by his newfound powers, Barry is shocked to discover he is not the only \"meta-human\" who was created in the wake of the accelerator explosion -- and not everyone is using their new powers for good. Barry partners with S.T.A.R. Labs and dedicates his
      life to protect the innocent. For now, only a few close friends and associates know that Barry is literally the fastest man alive, but it won''t be long before the world learns what Barry Allen has become...The Flash.","poster_path":"\/wHa6KOJAoNTFLFtp7wguUJKSnju.jpg"},{"original_name":"His
      Dark Materials","genre_ids":[18,10765],"name":"His Dark Materials","popularity":155.476,"origin_country":["GB"],"vote_count":74,"first_air_date":"2019-11-03","backdrop_path":"\/9yKCJTOh9m3Lol2RY3kw99QPH6x.jpg","original_language":"en","id":68507,"vote_average":7.8,"overview":"Lyra
      is an orphan who lives in a parallel universe in which science, theology and magic are entwined. Lyra''s search for a kidnapped friend uncovers a sinister plot involving stolen children, and turns into a quest to understand a mysterious phenomenon called
      Dust. She is later joined on her journey by Will, a boy who possesses a knife that can cut windows between worlds. As Lyra learns the truth about her parents and her prophesied destiny, the two young people are caught up in a war against celestial powers
      that ranges across many worlds.","poster_path":"\/xOjRNnQw5hqR1EULJ2iHkGwJVA4.jpg"},{"original_name":"Supernatural","genre_ids":[18,9648,10765],"name":"Supernatural","popularity":150.548,"origin_country":["US"],"vote_count":2059,"first_air_date":"2005-09-13","backdrop_path":"\/o9OKe3M06QMLOzTl3l6GStYtnE9.jpg","original_language":"en","id":1622,"vote_average":7.4,"overview":"When
      they were boys, Sam and Dean Winchester lost their mother to a mysterious and demonic supernatural force. Subsequently, their father raised them to be soldiers. He taught them about the paranormal evil that lives in the dark corners and on the back roads
      of America ... and he taught them how to kill it. Now, the Winchester brothers crisscross the country in their ''67 Chevy Impala, battling every kind of supernatural threat they encounter along the way. ","poster_path":"\/KoYWXbnYuS3b0GyQPkbuexlVK9.jpg"},{"original_name":"See","genre_ids":[18,10759,10765],"name":"See","popularity":130.537,"origin_country":["US"],"vote_count":93,"first_air_date":"2019-11-01","backdrop_path":"\/b2ZxtdXcpyI1LhVdiABbJOz2Yph.jpg","original_language":"en","id":80752,"vote_average":7.8,"overview":"A
      virus has decimated humankind. Those who survived emerged blind. Centuries later when twins are born with the mythic ability to see, their father must protect his tribe against a threatened queen.","poster_path":"\/g3JsScc7mQCfc3e5e5rXwu7xVVP.jpg"},{"original_name":"4
      Blocks","genre_ids":[18],"name":"4 Blocks","popularity":188.984,"origin_country":["DE"],"vote_count":46,"first_air_date":"2017-05-08","backdrop_path":"\/jEdce7g6VZHMoJ7DANX8NFQkVAW.jpg","original_language":"de","id":71641,"vote_average":4.7,"overview":"Based
      in Neukölln, Berlin Toni manages the daily business of dealing with the Arabic gangs and ends up wanting to leave his old life behind for his family, but as expected, its never that simple.","poster_path":"\/jVObyxtNxuPbG5czuKvm7pW56EV.jpg"},{"original_name":"Family
      Guy","genre_ids":[16,35],"name":"Family Guy","popularity":106.531,"origin_country":["US"],"vote_count":1731,"first_air_date":"1999-01-31","backdrop_path":"\/pH38r4TWTqq7Mcs6XAlwgzNUeJe.jpg","original_language":"en","id":1434,"vote_average":6.5,"overview":"Sick,
      twisted, politically incorrect and Freakin'' Sweet animated series featuring the adventures of the dysfunctional Griffin family. Bumbling Peter and long-suffering Lois have three kids. Stewie (a brilliant but sadistic baby bent on killing his mother and
      taking over the world), Meg (the oldest, and is the most unpopular girl in town) and Chris (the middle kid, he''s not very bright but has a passion for movies). The final member of the family is Brian - a talking dog and much more than a pet, he keeps
      Stewie in check whilst sipping Martinis and sorting through his own life issues.","poster_path":"\/gBGUL1UTUNmdRQT8gA1LUV4yg39.jpg"},{"original_name":"South Park","genre_ids":[16,35],"name":"South Park","popularity":104.8,"origin_country":["US"],"vote_count":1199,"first_air_date":"1997-08-13","backdrop_path":"\/mSDKNVvDfitFE6Fb6fSSl5DQmgS.jpg","original_language":"en","id":2190,"vote_average":7.8,"overview":"Follows
      the misadventures of four irreverent grade-schoolers in the quiet, dysfunctional town of South Park, Colorado.","poster_path":"\/v9zc0cZpy5aPSfAy6Tgb6I1zWgV.jpg"},{"original_name":"Grey''s Anatomy","genre_ids":[18],"name":"Grey''s Anatomy","popularity":104.118,"origin_country":["US"],"vote_count":1130,"first_air_date":"2005-03-27","backdrop_path":"\/edmk8xjGBsYVIf4QtLY9WMaMcXZ.jpg","original_language":"en","id":1416,"vote_average":6.4,"overview":"Follows
      the personal and professional lives of a group of doctors at Seattle’s Grey Sloan Memorial Hospital.","poster_path":"\/jnsvc7gCKocXnrTXF6p03cICTWb.jpg"},{"original_name":"Law & Order: Special Victims Unit","genre_ids":[80,18],"name":"Law & Order: Special
      Victims Unit","popularity":121.758,"origin_country":["US"],"vote_count":737,"first_air_date":"1999-09-20","backdrop_path":"\/cD9PxbrdWYgL7MUpD9eOYuiSe2P.jpg","original_language":"en","id":2734,"vote_average":6.5,"overview":"In the criminal justice system,
      sexually-based offenses are considered especially heinous. In New York City, the dedicated detectives who investigate these vicious felonies are members of an elite squad known as the Special Victims Unit. These are their stories.","poster_path":"\/6t6r1VGQTTQecN4V0sZeqsmdU9g.jpg"},{"original_name":"The
      Blacklist","genre_ids":[80,18,9648],"name":"The Blacklist","popularity":105.88,"origin_country":["US"],"vote_count":1109,"first_air_date":"2013-09-23","backdrop_path":"\/fHwiAqIKragaCbNJo9Qs4lrccIN.jpg","original_language":"en","id":46952,"vote_average":7,"overview":"Raymond
      \"Red\" Reddington, one of the FBI''s most wanted fugitives, surrenders in person at FBI Headquarters in Washington, D.C. He claims that he and the FBI have the same interests: bringing down dangerous criminals and terrorists. In the last two decades,
      he''s made a list of criminals and terrorists that matter the most but the FBI cannot find because it does not know they exist. Reddington calls this \"The Blacklist\". Reddington will co-operate, but insists that he will speak only to Elizabeth Keen,
      a rookie FBI profiler.","poster_path":"\/bgbQCW4fE9b6wSOSC6Fb4FfVzsW.jpg"},{"original_name":"The Walking Dead","genre_ids":[18,10759,10765],"name":"The Walking Dead","popularity":128.569,"origin_country":["US"],"vote_count":4381,"first_air_date":"2010-10-31","backdrop_path":"\/wXXaPMgrv96NkH8KD1TMdS2d7iq.jpg","original_language":"en","id":1402,"vote_average":7.3,"overview":"Sheriff''s
      deputy Rick Grimes awakens from a coma to find a post-apocalyptic world dominated by flesh-eating zombies. He sets out to find his family and encounters many other survivors along the way.","poster_path":"\/reKs8y4mPwPkZG99ZpbKRhBPKsX.jpg"},{"original_name":"Titans","genre_ids":[18,10759,10765],"name":"Titans","popularity":103.402,"origin_country":["US"],"vote_count":362,"first_air_date":"2018-10-12","backdrop_path":"\/7DE9KC9GyY2TUJMnSPgYJG3rafw.jpg","original_language":"en","id":75450,"vote_average":7.6,"overview":"A
      team of young superheroes led by Nightwing (formerly Batman''s first Robin) form to combat evil and other perils.","poster_path":"\/eeHI5iBSCOxj4HGSOmFM6azBmwb.jpg"},{"original_name":"Riverdale","genre_ids":[18,9648],"name":"Riverdale","popularity":118.592,"origin_country":["US"],"vote_count":739,"first_air_date":"2017-01-26","backdrop_path":"\/2IUpoKSP64r6rp2vBo0Fdk8a1UU.jpg","original_language":"en","id":69050,"vote_average":7.3,"overview":"Set
      in the present, the series offers a bold, subversive take on Archie, Betty, Veronica and their friends, exploring the surreality of small-town life, the darkness and weirdness bubbling beneath Riverdale’s wholesome facade.","poster_path":"\/4X7o1ssOEvp4BFLim1AZmPNcYbU.jpg"},{"original_name":"Legacies","genre_ids":[18,10765],"name":"Legacies","popularity":99.912,"origin_country":["US"],"vote_count":234,"first_air_date":"2018-10-25","backdrop_path":"\/wblSifvXAlqAYqEUoXmhpzeau7b.jpg","original_language":"en","id":79460,"vote_average":7.8,"overview":"In
      a place where young witches, vampires, and werewolves are nurtured to be their best selves in spite of their worst impulses, Klaus Mikaelson’s daughter, 17-year-old Hope Mikaelson, Alaric Saltzman’s twins, Lizzie and Josie Saltzman, among others, come
      of age into heroes and villains at The Salvatore School for the Young and Gifted.","poster_path":"\/rb64COqdpRRfWOc6gWTfC7WxzXP.jpg"},{"original_name":"ダウンタウンのガキの使いやあらへんで！","id":72974,"name":"Downtown no Gaki no Tsukai ya Arahende!!","popularity":94.135,"vote_count":6,"vote_average":9.8,"first_air_date":"1989-10-03","poster_path":"\/tNL2KBNPX707zDIvEhAuUjS1P91.jpg","genre_ids":[35],"original_language":"ja","backdrop_path":"\/juYauXAJViA7Zle5ZIprZEY66hz.jpg","overview":"A
      Japanese variety show hosted by popular Japanese owarai duo, Downtown, with comedian Hōsei Tsukitei (formerly known as Hōsei Yamasaki) and owarai duo Cocorico co-hosting.","origin_country":["JP"]},{"original_name":"ハンターｘハンター","genre_ids":[16,35,18,10759],"name":"Hunter
      x Hunter","popularity":93.509,"origin_country":["JP"],"vote_count":168,"first_air_date":"2011-10-02","backdrop_path":"\/ye4oayd3csx8psElvvQPdO2fgdD.jpg","original_language":"ja","id":46298,"vote_average":8.2,"overview":"Twelve-year-old Gon Freecss one
      day discovers that the father he had always been told was dead was alive and well. His Father, Ging, is a Hunter—a member of society''s elite with a license to go anywhere or do almost anything. Gon, determined to follow in his father''s footsteps, decides
      to take the Hunter Examination and eventually find his father to prove himself as a Hunter in his own right. But on the way, he learns that there is more to becoming a Hunter than previously thought, and the challenges that he must face are considered
      the toughest in the world.","poster_path":"\/yWBcBIO9OrF3E85C5Arols6QNnG.jpg"}]}'
- recorded: 2019-12-01T13:10:32.780Z
  request:
    method: GET
    uri: https://api.themoviedb.org/3/genre/movie/list?api_key=848001472ba79b519655a14b11681993
  response:
    status: 200
    headers:
      access-control-allow-methods: GET, HEAD, POST, PUT, DELETE, OPTIONS
      access-control-allow-origin: '*'
      access-control-expose-headers: ETag, X-RateLimit-Limit, X-RateLimit-Remaining, X-RateLimit-Reset, Retry-After, Content-Length, Content-Range
      cache-control: public, max-age=28800
      content-length: '547'
      content-type: application/json;charset=utf-8
      date: Sun, 01 Dec 2019 13:10:34 GMT
      etag: '"df2617d2ab5d0c85ceff5098b8ab70c4"'
      server: openresty
      x-ratelimit-limit: '40'
      x-ratelimit-remaining: '38'
      x-ratelimit-reset: '1575205843'
    body: '{"genres":[{"id":28,"name":"Action"},{"id":12,"name":"Adventure"},{"id":16,"name":"Animation"},{"id":35,"name":"Comedy"},{"id":80,"name":"Crime"},{"id":99,"name":"Documentary"},{"id":18,"name":"Drama"},{"id":10751,"name":"Family"},{"id":14,"name":"Fantasy"},{"id":36,"name":"History"},{"id":27,"name":"Horror"},{"id":10402,"name":"Music"},{"id":9648,"name":"Mystery"},{"id":10749,"name":"Romance"},{"id":878,"name":"Science
      Fiction"},{"id":10770,"name":"TV Movie"},{"id":53,"name":"Thriller"},{"id":10752,"name":"War"},{"id":37,"name":"Western"}]}'
